gordi: Plot ordination diagrams with ggplot2 – Botzool Data Analysis
…
$species_scores
# A tibble: 30 × 2
       CAP1    MDS1
      <dbl>   <dbl>
 1 -0.0908  -0.157 
 2  0.114    0.180 
 3 -0.0431  -0.0358
 4 -0.00467  0.131 
 5 -0.0600  -0.148 
 6 -0.0430  -0.0854
 7 -0.0662  -0.0937
 8  0.0338   0.0367
 9 -0.0191   0.0176
10  0.237   -0.0106
# ℹ 20 more rows

$predictor_scores
# A tibble: 1 × 4
   CAP1  MDS1 score  label
  <dbl> <dbl> <fct>  <chr>
1     1     0 biplot A1   

$species_names
# A tibble: 30 × 1
   species_names
   <chr>        
 1 Achimill     
 2 Agrostol     
 3 Airaprae     
 4 Alopgeni     
 5 Anthodor     
 6 Bellpere     
 7 Bromhord     
 8 Chenalbu     
 9 Cirsarve     
10 Comapalu     
# ℹ 20 more rows
…
