11 From a database to a plot – Botzool Data Analysis
…
Rows: 137 Columns: 84
── Column specification ────────────────────────────────────────────────────────
Delimiter: ","
chr (13): COUNTRY, COVERSCALE, AUTHOR, SYNTAXON, MOSS_IDENT, LICH_IDENT, REM...
dbl (45): RELEVE_NR, DATE, SURF_AREA, ALTITUDE, EXPOSITION, INCLINATIO, COV_...
lgl (26): REFERENCE, TABLE_NR, NR_IN_TAB, PROJECT, UTM, RESURVEY, FOR_EVA, R...

ℹ Use `spec()` to retrieve the full column specification for this data.
ℹ Specify the column types or set `show_col_types = FALSE` to quiet this message.

tibble(env)

# A tibble: 137 × 84
   releve_nr country reference table_nr nr_in_tab coverscale project author
       <dbl> <chr>   <lgl>     <lgl>    <lgl>     <chr>      <lgl>   <chr> 
 1    183111 CZ      NA        NA       NA        02         NA      0832  
 2    183112 CZ      NA        NA       NA        02         NA      0832  
 3    183113 CZ      NA        NA       NA        02         NA      0832  
 4    183114 CZ      NA        NA       NA        02         NA      0832  
 5    183115 CZ      NA        NA       NA        02         NA      0832  
 6    183116 CZ      NA        NA       NA        02         NA      0832  
 7    183117 CZ      NA        NA       NA        02         NA      0832  
 8    183118 CZ      NA        NA       NA        02         NA      0832  
 9    183119 CZ      NA        NA       NA        02         NA      0832  
10    183120 CZ      NA        NA       NA        02         NA      0832  
# ℹ 127 more rows
# ℹ 76 more variables: date <dbl>, syntaxon <chr>, surf_area <dbl>, utm <lgl>,
#   altitude <dbl>, exposition <dbl>, inclinatio <dbl>, cov_total <dbl>,
#   cov_trees <dbl>, cov_shrubs <dbl>, cov_herbs <dbl>, cov_mosses <dbl>,
#   cov_lichen <dbl>, cov_algae <dbl>, cov_litter <dbl>, cov_water <dbl>,
#   cov_rock <dbl>, tree_high <dbl>, tree_low <dbl>, shrub_high <dbl>,
#   shrub_low <dbl>, herb_high <dbl>, herb_low <dbl>, herb_max <dbl>, …
…
Rows: 13862 Columns: 7
── Column specification ────────────────────────────────────────────────────────
Delimiter: ","
chr (4): LETTERCODE, TurbovegCzechiaSlovakia, Kaplan, ExpertSystem
dbl (2): SPECIES_NR, nonvascular
lgl (1): SYNONYM

ℹ Use `spec()` to retrieve the full column specification for this data.
ℹ Specify the column types or set `show_col_types = FALSE` to quiet this message.

tibble(nomenclature)

# A tibble: 13,862 × 7
   species_nr lettercode synonym turboveg_czechia_slovakia  kaplan expert_system
        <dbl> <chr>      <lgl>   <chr>                      <chr>  <chr>        
 1      14321 *CONC*C    FALSE   x Conygeron huelsenii      x Con… x Conyzigero…
 2      14323 *DACD*A    FALSE   x Dactylodenia gracilis    x Dac… x Dactylogym…
 3      14324 *DACD*A    TRUE    x Dactylodenia st.-quinti… x Dac… x Dactylogym…
 4      14322 *DACD*D    FALSE   x Dactylodenia comigera    x Dac… x Dactylogym…
 5      14325 *DATD*D    FALSE   x Dactyloglossum erdingeri x Dac… x Dactyloglo…
 6      14327 *FESF*E    FALSE   x Festulolium loliaceum    x Fes… x Festuloliu…
 7      14326 *FESF*F    FALSE   x Festulolium braunii      x Fes… x Festuloliu…
 8      14328 *GYMG*G    FALSE   x Gymnanacamptis anacampt… x Gym… x Gymnanacam…
 9      14329 *ORCO*O    FALSE   x Orchidactyla boudieri    x Dac… x Dactylocam…
10      14330 *PSEP*P    FALSE   x Pseudadenia schweinfurt… x Pse… x Pseudadeni…
# ℹ 13,852 more rows
# ℹ 1 more variable: nonvascular <dbl>
…
cover <- read_csv("data/turboveg_to_R/cover_20230402.csv") %>% clean_names()  

Rows: 326 Columns: 6
── Column specification ────────────────────────────────────────────────────────
Delimiter: ","
chr (3): CoverScaleName, COVERSCALE, COVER_CODE
dbl (3): ID, CoverPercEVA, CoverPerc

ℹ Use `spec()` to retrieve the full column specification for this data.
ℹ Specify the column types or set `show_col_types = FALSE` to quiet this message.

tibble(cover)

# A tibble: 326 × 6
      id cover_scale_name coverscale cover_code cover_perc_eva cover_perc
   <dbl> <chr>            <chr>      <chr>               <dbl>      <dbl>
 1     1 Percetage %      00         0.1                   0.1        0.1
 2     2 Percetage %      00         0.2                   0.2        0.2
 3     3 Percetage %      00         0.3                   0.3        0.3
 4     4 Percetage %      00         0.4                   0.4        0.4
 5     5 Percetage %      00         0.5                   0.5        0.5
 6     6 Percetage %      00         0.6                   0.6        0.6
 7     7 Percetage %      00         0.7                   0.7        0.7
 8     8 Percetage %      00         0.8                   0.8        0.8
 9     9 Percetage %      00         0.9                   0.9        0.9
10    10 Percetage %      00         1                     1          1  
# ℹ 316 more rows
…
11.4.3 Merging all files together into complete spe file

Finally, I have translation to nomenclature, to cover, so I need to put everything together.

tvabund %>% 
  left_join(nomenclature %>% 
              select(species_nr, kaplan, expert_system, nonvascular)) %>% 
  left_join(env %>% select(releve_nr, coverscale)) %>% 
  left_join(cover %>% select(coverscale,cover_code,cover_perc))

Joining with `by = join_by(species_nr)`
Joining with `by = join_by(releve_nr)`
Joining with `by = join_by(cover_code, coverscale)`

# A tibble: 4,583 × 10
   releve_nr species_nr cover_code layer orig_name kaplan          expert_system
       <dbl>      <dbl> <chr>      <dbl> <lgl>     <chr>           <chr>        
 1    183111       2206 +              6 NA        Carex digitata… Carex digita…
 2    183111       2315 1              7 NA        Carpinus betul… Carpinus bet…
 3    183111       3351 r              6 NA        Cytisus nigric… Cytisus nigr…
 4    183111       4283 1              6 NA        Festuca ovina   Festuca ovina
 5    183111       4430 r              7 NA        Fraxinus excel… Fraxinus exc…
 6    183111       4577 r              6 NA        Galium rotundi… Galium rotun…
 7    183111       5127 1              6 NA        Hieracium lach… Hieracium la…
 8    183111       5137 +              6 NA        Hieracium muro… Hieracium mu…
 9    183111       5165 r              6 NA        Hieracium saba… Hieracium sa…
10    183111       5353 r              6 NA        Hypericum perf… Hypericum pe…
# ℹ 4,573 more rows
# ℹ 3 more variables: nonvascular <dbl>, coverscale <chr>, cover_perc <dbl>
…
