1 Introduction – Botzool Data Analysis
…
Find more in the R for data science book https://r4ds.hadley.nz/

1.1.2 Tibbles

Tibbles are new, updated versions of base-R data frames. They are designed to work better with other tidyverse packages. In contrast to data frames, tibbles never convert the type of the inputs (e.g. strings to factors), they never change the names of variables, and they never create row names. Example:

data <- read_excel("data/forest_understory/Axmanova-Forest-understory-diversity-analyses.xlsx")
tibble (data)

# A tibble: 65 × 22
   PlotID ForestType ForestTypeName      Herbs Juveniles CoverE1 Biomass
    <dbl>      <dbl> <chr>               <dbl>     <dbl>   <dbl>   <dbl>
 1      1          2 oak hornbeam forest    26        12      20    12.8
 2      2          1 oak forest             13         3      25     9.9
 3      3          1 oak forest             14         1      25    15.2
 4      4          1 oak forest             15         5      30    16  
 5      5          1 oak forest             13         1      35    20.7
 6      6          1 oak forest             16         3      60    46.4
 7      7          1 oak forest             17         5      70    49.2
 8      8          2 oak hornbeam forest    21         1      70    48.7
 9      9          2 oak hornbeam forest    15         4      15    13.8
10     10          1 oak forest             14         4      75    79.1
# ℹ 55 more rows
# ℹ 15 more variables: Soil_depth_categ <dbl>, pH_KCl <dbl>, Slope <dbl>,
#   Altitude <dbl>, Canopy_E3 <dbl>, Radiation <dbl>, Heat <dbl>,
#   TransDir <dbl>, TransDif <dbl>, TransTot <dbl>, EIV_light <dbl>,
#   EIV_moisture <dbl>, EIV_soilreaction <dbl>, EIV_nutrients <dbl>, TWI <dbl>
…
See this example

data <- read_csv("data/messy_data/Example0.csv")
names(data)

[1] "Relevé number"                   "Taxon"                          
[3] "Vegetation layer"                "Cover %"                        
[5] "Braun-Blanquet Scale (New) Code"

You can rename strange names one by one. First use the new name and put the old one on the right like here.

data %>% rename (Releve = "Relevé number")

# A tibble: 51 × 5
   Releve Taxon              `Vegetation layer` `Cover %` Braun-Blanquet Scale…¹
    <dbl> <chr>                           <dbl>     <dbl> <chr>                 
 1 435469 Ribes uva-crispa                    0         2 +                     
 2 435469 Ulmus minor                         0         3 1                     
 3 435469 Crataegus monogyn…                  0         2 +                     
 4 435469 Rubus caesius                       0        13 a                     
 5 435469 Prunus padus ssp.…                  0         3 1                     
 6 435469 Populus alba                        0        13 a                     
 7 435469 Fraxinus excelsior                  0        68 4                     
 8 435469 Arctium lappa                       6         1 r                     
 9 435469 Adoxa moschatelli…                  6         2 +                     
10 435469 Aegopodium podagr…                  6        13 a                     
# ℹ 41 more rows
# ℹ abbreviated name: ¹​`Braun-Blanquet Scale (New) Code`
…
data %>%
  rename_all(~ str_replace_all(., c(
    "\\." = "",     # remove dots in the variable names
    "\\é" = "e",    # replace é by e
    "\\%" = "perc", # remove symbol % and change it to perc
    "\\(" = "",     # remove brackets
    "\\)" = "",     # remove brackets
    "\\/" = "",     # remove slash
    "\\?" = "",     # remove questionmark
    "\\s" = ".")))   # remove spaces

# A tibble: 51 × 5
   Releve.number Taxon        Vegetation.layer Cover.perc Braun-Blanquet.Scale…¹
           <dbl> <chr>                   <dbl>      <dbl> <chr>                 
 1        435469 Ribes uva-c…                0          2 +                     
 2        435469 Ulmus minor                 0          3 1                     
 3        435469 Crataegus m…                0          2 +                     
 4        435469 Rubus caesi…                0         13 a                     
 5        435469 Prunus padu…                0          3 1                     
 6        435469 Populus alba                0         13 a                     
 7        435469 Fraxinus ex…                0         68 4                     
 8        435469 Arctium lap…                6          1 r                     
 9        435469 Adoxa mosch…                6          2 +                     
10        435469 Aegopodium …                6         13 a                     
# ℹ 41 more rows
# ℹ abbreviated name: ¹​`Braun-Blanquet.Scale.New.Code`
…
Let’s select one of the files and import it into our working environment. Depending on the type of file I have to select the right approach. Here it is an Excel file, so I can use function read_excel. Check the cheatsheet for more tips.

data <- read_excel("data/forest_understory/Axmanova-Forest-understory-diversity-analyses.xlsx")

We imported the data and here are a few tips how to check the structure

First is the tibble, which actually appears automatically after any import using tidyverse approach - note that only ten rows and several variables are shown, if there are too many, rest is listed below.

tibble(data)

# A tibble: 65 × 22
   PlotID ForestType ForestTypeName      Herbs Juveniles CoverE1 Biomass
    <dbl>      <dbl> <chr>               <dbl>     <dbl>   <dbl>   <dbl>
 1      1          2 oak hornbeam forest    26        12      20    12.8
 2      2          1 oak forest             13         3      25     9.9
 3      3          1 oak forest             14         1      25    15.2
 4      4          1 oak forest             15         5      30    16  
 5      5          1 oak forest             13         1      35    20.7
 6      6          1 oak forest             16         3      60    46.4
 7      7          1 oak forest             17         5      70    49.2
 8      8          2 oak hornbeam forest    21         1      70    48.7
 9      9          2 oak hornbeam forest    15         4      15    13.8
10     10          1 oak forest             14         4      75    79.1
# ℹ 55 more rows
# ℹ 15 more variables: Soil_depth_categ <dbl>, pH_KCl <dbl>, Slope <dbl>,
#   Altitude <dbl>, Canopy_E3 <dbl>, Radiation <dbl>, Heat <dbl>,
#   TransDir <dbl>, TransDif <dbl>, TransTot <dbl>, EIV_light <dbl>,
#   EIV_moisture <dbl>, EIV_soilreaction <dbl>, EIV_nutrients <dbl>, TWI <dbl>
…
