2 Data Manipulation – Botzool Data Analysis
…
2.2 Select

Select extracts columns/variables based on their names or position. It is important to realise the difference between select and filter. Select is used to select the names of variables I want to keep in the dataset, while filter applies to rows depending on their values.

You can select by naming the variables. Here you would appreciate the tidy style of names! Tidy names means no need to use parentheses :-)

data %>% 
  select(PlotID, ForestType, ForestTypeName) 

# A tibble: 65 × 3
   PlotID ForestType ForestTypeName     
    <dbl>      <dbl> <chr>              
 1      1          2 oak hornbeam forest
 2      2          1 oak forest         
 3      3          1 oak forest         
 4      4          1 oak forest         
 5      5          1 oak forest         
 6      6          1 oak forest         
 7      7          1 oak forest         
 8      8          2 oak hornbeam forest
 9      9          2 oak hornbeam forest
10     10          1 oak forest         
# ℹ 55 more rows

You can also select by position. However, be sure it will stay the same after all the changes you might do with the data.

data %>% 
  select(1:3)

# A tibble: 65 × 3
   PlotID ForestType ForestTypeName     
    <dbl>      <dbl> <chr>              
 1      1          2 oak hornbeam forest
 2      2          1 oak forest         
 3      3          1 oak forest         
 4      4          1 oak forest         
 5      5          1 oak forest         
 6      6          1 oak forest         
 7      7          1 oak forest         
 8      8          2 oak hornbeam forest
 9      9          2 oak hornbeam forest
10     10          1 oak forest         
# ℹ 55 more rows

Sometimes you decide you want to get rid of some variables. Either you can name all the others which you want to keep, or you can remove those unwanted with minus sign. If it is one variable it is easy “select(-xx)”, if two or more, you have to use “select(-c(xx, xy))”

data %>% 
  select(-c(ForestType,ForestTypeName))

# A tibble: 65 × 20
   PlotID Herbs Juveniles CoverE1 Biomass Soil_depth_categ pH_KCl Slope Altitude
    <dbl> <dbl>     <dbl>   <dbl>   <dbl>            <dbl>  <dbl> <dbl>    <dbl>
 1      1    26        12      20    12.8              5     5.28     4      412
 2      2    13         3      25     9.9              4.5   3.24    24      458
 3      3    14         1      25    15.2              3     4.01    13      414
 4      4    15         5      30    16                3     3.77    21      379
 5      5    13         1      35    20.7              3     3.5      0      374
 6      6    16         3      60    46.4              6     3.8     10      380
 7      7    17         5      70    49.2              7     3.48     6      373
 8      8    21         1      70    48.7              5     3.68     0      390
 9      9    15         4      15    13.8              3.5   4.24    38      255
10     10    14         4      75    79.1              5     4.01    13      340
# ℹ 55 more rows
# ℹ 11 more variables: Canopy_E3 <dbl>, Radiation <dbl>, Heat <dbl>,
#   TransDir <dbl>, TransDif <dbl>, TransTot <dbl>, EIV_light <dbl>,
#   EIV_moisture <dbl>, EIV_soilreaction <dbl>, EIV_nutrients <dbl>, TWI <dbl>

You can also define range of variables between two of them.

data %>%
  select(PlotID:ForestTypeName)

# A tibble: 65 × 3
   PlotID ForestType ForestTypeName     
    <dbl>      <dbl> <chr>              
 1      1          2 oak hornbeam forest
 2      2          1 oak forest         
 3      3          1 oak forest         
 4      4          1 oak forest         
 5      5          1 oak forest         
 6      6          1 oak forest         
 7      7          1 oak forest         
 8      8          2 oak hornbeam forest
 9      9          2 oak hornbeam forest
10     10          1 oak forest         
# ℹ 55 more rows

Or you can combine the approaches listed above

data %>%
  select (PlotID, 3:6)

# A tibble: 65 × 5
   PlotID ForestTypeName      Herbs Juveniles CoverE1
    <dbl> <chr>               <dbl>     <dbl>   <dbl>
 1      1 oak hornbeam forest    26        12      20
 2      2 oak forest             13         3      25
 3      3 oak forest             14         1      25
 4      4 oak forest             15         5      30
 5      5 oak forest             13         1      35
 6      6 oak forest             16         3      60
 7      7 oak forest             17         5      70
 8      8 oak hornbeam forest    21         1      70
 9      9 oak hornbeam forest    15         4      15
10     10 oak forest             14         4      75
# ℹ 55 more rows

Select can be also used in combination with stringr package to identify the pattern in the names: try several options: starts_with, ends_with or more general one contains

data %>%
  select (PlotID, starts_with("EIV"))

# A tibble: 65 × 5
   PlotID EIV_light EIV_moisture EIV_soilreaction EIV_nutrients
    <dbl>     <dbl>        <dbl>            <dbl>         <dbl>
 1      1      5            4.38             6.68          4.31
 2      2      4.71         4.64             4.67          3.69
 3      3      4.36         4.7              4.8           3.55
 4      4      5.26         4.38             5.53          3.56
 5      5      6.14         4                5.33          3.46
 6      6      6.19         4.35             6.75          5.06
 7      7      6.19         4.25             6.09          4.33
 8      8      5.29         4.6              5.07          4.12
 9      9      5.47         4.36             5.46          3.5 
10     10      6.53         3.86             6             3   
# ℹ 55 more rows

Select can effectively help you organise the data. Imagine you have a workflow where you need only some variables, but in a certain sequence. And you import the data from different people, or years. With the use of select in your script you can order the variables always in the same way e.g. SampleID, ForestType, SpeciesNr, Productivity, even during import. And you can also rename the variables using select, to get exactly what you need. Here the new name is at the left, as in rename.

data %>% 
  select(SampleID=PlotID, ForestCode=ForestType, SpeciesNr=Herbs, Productivity=Biomass) 

# A tibble: 65 × 4
   SampleID ForestCode SpeciesNr Productivity
      <dbl>      <dbl>     <dbl>        <dbl>
 1        1          2        26         12.8
 2        2          1        13          9.9
 3        3          1        14         15.2
 4        4          1        15         16  
 5        5          1        13         20.7
 6        6          1        16         46.4
 7        7          1        17         49.2
 8        8          2        21         48.7
 9        9          2        15         13.8
10       10          1        14         79.1
# ℹ 55 more rows

2.3 Arrange

This function keeps the same variables just reorders the rows according to the values we select. To see the changes at a first glance I will first select only few variables.

data <- read_excel("data/forest_understory/Axmanova-Forest-understory-diversity-analyses.xlsx") 
data <- data %>% select(PlotID, ForestType, ForestTypeName, Biomass)

Now I decided to arrange the data by Forest type

data %>% 
  arrange(ForestTypeName)

# A tibble: 65 × 4
   PlotID ForestType ForestTypeName  Biomass
    <dbl>      <dbl> <chr>             <dbl>
 1    101          4 alluvial forest    91.1
 2    103          4 alluvial forest   114. 
 3    104          4 alluvial forest   188. 
 4    110          4 alluvial forest   126. 
 5    111          4 alluvial forest    84.8
 6    113          4 alluvial forest    74.5
 7    125          4 alluvial forest   123. 
 8    127          4 alluvial forest   176  
 9    129          4 alluvial forest   100. 
10    131          4 alluvial forest   163. 
# ℹ 55 more rows

We can also decide to arrange the data from the highest value to the lowest, i.e. in descending order

data %>% 
  arrange(desc(Biomass))

# A tibble: 65 × 4
   PlotID ForestType ForestTypeName      Biomass
    <dbl>      <dbl> <chr>                 <dbl>
 1    132          4 alluvial forest        287.
 2    130          3 ravine forest          238 
 3    104          4 alluvial forest        188.
 4    127          4 alluvial forest        176 
 5    131          4 alluvial forest        163.
 6    110          4 alluvial forest        126.
 7    125          4 alluvial forest        123.
 8    128          3 ravine forest          121.
 9    103          4 alluvial forest        114.
10    124          2 oak hornbeam forest    102.
# ℹ 55 more rows

Or we can arrange according to more variables. Here the forest type goes first, as I decided it is the most important grouping variable. Within each type I want to see the rows/cases ordered by biomass values.

data %>% 
  arrange(ForestType, ForestTypeName, desc(Biomass)) %>% print(n=30)

# A tibble: 65 × 4
   PlotID ForestType ForestTypeName      Biomass
    <dbl>      <dbl> <chr>                 <dbl>
 1     10          1 oak forest             79.1
 2      7          1 oak forest             49.2
 3      6          1 oak forest             46.4
 4     44          1 oak forest             34.1
 5     82          1 oak forest             33.9
 6     28          1 oak forest             29.7
 7     42          1 oak forest             21.5
 8      5          1 oak forest             20.7
 9     81          1 oak forest             20.6
10      4          1 oak forest             16  
11     47          1 oak forest             15.5
12      3          1 oak forest             15.2
13     31          1 oak forest             14.9
14    100          1 oak forest             13.5
15      2          1 oak forest              9.9
16     11          1 oak forest              7.4
17    124          2 oak hornbeam forest   102. 
18    120          2 oak hornbeam forest    98.5
19    121          2 oak hornbeam forest    84.7
20    126          2 oak hornbeam forest    72.9
21     18          2 oak hornbeam forest    72.2
22    118          2 oak hornbeam forest    66.2
23     99          2 oak hornbeam forest    64.8
24    109          2 oak hornbeam forest    60.7
25    112          2 oak hornbeam forest    58.4
26    102          2 oak hornbeam forest    57.4
27    117          2 oak hornbeam forest    54.7
28      8          2 oak hornbeam forest    48.7
29     86          2 oak hornbeam forest    46.9
30     87          2 oak hornbeam forest    42.9
# ℹ 35 more rows
…
Or I might define a list of values, especially for categorical variables. And the filter function will try to find rows with values exactly matching those %in% the list.

data %>% 
  filter(ForestTypeName %in% c("alluvial forest", "ravine forest"))

# A tibble: 21 × 4
   PlotID ForestType ForestTypeName  Biomass
    <dbl>      <dbl> <chr>             <dbl>
 1    101          4 alluvial forest    91.1
 2    103          4 alluvial forest   114. 
 3    104          4 alluvial forest   188. 
 4    105          3 ravine forest      65.5
 5    106          3 ravine forest      33.6
 6    108          3 ravine forest      82.3
 7    110          4 alluvial forest   126. 
 8    111          4 alluvial forest    84.8
 9    113          4 alluvial forest    74.5
10    114          3 ravine forest      71.5
# ℹ 11 more rows
…
Sometimes you might find it useful to filter something out, rather than specifying what should stay. This is done by the exclamation mark as you can see below.

data %>% 
  filter(!is.na(Juveniles))

# A tibble: 65 × 22
   PlotID ForestType ForestTypeName      Herbs Juveniles CoverE1 Biomass
    <dbl>      <dbl> <chr>               <dbl>     <dbl>   <dbl>   <dbl>
 1      1          2 oak hornbeam forest    26        12      20    12.8
 2      2          1 oak forest             13         3      25     9.9
 3      3          1 oak forest             14         1      25    15.2
 4      4          1 oak forest             15         5      30    16  
 5      5          1 oak forest             13         1      35    20.7
 6      6          1 oak forest             16         3      60    46.4
 7      7          1 oak forest             17         5      70    49.2
 8      8          2 oak hornbeam forest    21         1      70    48.7
 9      9          2 oak hornbeam forest    15         4      15    13.8
10     10          1 oak forest             14         4      75    79.1
# ℹ 55 more rows
# ℹ 15 more variables: Soil_depth_categ <dbl>, pH_KCl <dbl>, Slope <dbl>,
#   Altitude <dbl>, Canopy_E3 <dbl>, Radiation <dbl>, Heat <dbl>,
#   TransDir <dbl>, TransDif <dbl>, TransTot <dbl>, EIV_light <dbl>,
#   EIV_moisture <dbl>, EIV_soilreaction <dbl>, EIV_nutrients <dbl>, TWI <dbl>
…
Tip: try slice_min if you need the lowest values.

2.6 Mutate

Mutate adds new variables that are functions of existing variables. It can also overwrite the original variable e.g. round the values.

For example, in the field I recorded separately juveniles of woody plants and all other herb-layer species. However, I want to sum these two values for each row/case/vegetation plot so that I can speak about overall species richness. I create new variable where I simply sum these two (note how easy it is with tidy names!).

data %>% 
  mutate(SpeciesRichness = Herbs+Juveniles) %>%
  select(PlotID, SpeciesRichness, Herbs, Juveniles)

# A tibble: 65 × 4
   PlotID SpeciesRichness Herbs Juveniles
    <dbl>           <dbl> <dbl>     <dbl>
 1      1              38    26        12
 2      2              16    13         3
 3      3              15    14         1
 4      4              20    15         5
 5      5              14    13         1
 6      6              19    16         3
 7      7              22    17         5
 8      8              22    21         1
 9      9              19    15         4
10     10              18    14         4
# ℹ 55 more rows

Sometimes you want to add variable, where all the rows/cases will get the same value. For example because you plan to join the data with other data or because it is useful for another mutate. This is also the very simple way how to change the data with abundances to presence/absence data.

data %>% 
  mutate(selection = 1)%>%
  select(PlotID, selection, ForestType, ForestTypeName)

# A tibble: 65 × 4
   PlotID selection ForestType ForestTypeName     
    <dbl>     <dbl>      <dbl> <chr>              
 1      1         1          2 oak hornbeam forest
 2      2         1          1 oak forest         
 3      3         1          1 oak forest         
 4      4         1          1 oak forest         
 5      5         1          1 oak forest         
 6      6         1          1 oak forest         
 7      7         1          1 oak forest         
 8      8         1          2 oak hornbeam forest
 9      9         1          2 oak hornbeam forest
10     10         1          1 oak forest         
# ℹ 55 more rows

You can also create a variable with more categories based on values of other variable using mutate ifelse You give the condition when it should be called low and what to do if the condition is not met - name it high. TIP> Inside ‘Condition’ you can use also other conditional operators, like AND (&), OR (|), or EQUAL (==) .

data %>%
  mutate(Productivity = ifelse(Biomass<60,"low","high")) %>% 
  select (PlotID, ForestTypeName, Productivity, Biomass) %>%
  print(n=20)

# A tibble: 65 × 4
   PlotID ForestTypeName      Productivity Biomass
    <dbl> <chr>               <chr>          <dbl>
 1      1 oak hornbeam forest low             12.8
 2      2 oak forest          low              9.9
 3      3 oak forest          low             15.2
 4      4 oak forest          low             16  
 5      5 oak forest          low             20.7
 6      6 oak forest          low             46.4
 7      7 oak forest          low             49.2
 8      8 oak hornbeam forest low             48.7
 9      9 oak hornbeam forest low             13.8
10     10 oak forest          high            79.1
11     11 oak forest          low              7.4
12     14 oak hornbeam forest low             14.2
13     16 oak hornbeam forest low             26.2
14     18 oak hornbeam forest high            72.2
15     28 oak forest          low             29.7
16     29 oak hornbeam forest low             37.9
17     31 oak forest          low             14.9
18     32 oak hornbeam forest low             19.2
19     36 oak hornbeam forest low              3.3
20     41 oak hornbeam forest low             26.9
# ℹ 45 more rows

The same can be done with similar approach using mutate cases when. Conditions are evaluated from the first (on the left) to the last (on the right side), so for each step you take only the rows, that are not yet treated by previous condition.

data %>% 
  mutate(Productivity = case_when(Biomass <= 60 ~ "low", Biomass > 60 ~ "high")) %>% 
  select (PlotID, ForestTypeName, Productivity, Biomass) %>%
  print(n=20)

# A tibble: 65 × 4
   PlotID ForestTypeName      Productivity Biomass
    <dbl> <chr>               <chr>          <dbl>
 1      1 oak hornbeam forest low             12.8
 2      2 oak forest          low              9.9
 3      3 oak forest          low             15.2
 4      4 oak forest          low             16  
 5      5 oak forest          low             20.7
 6      6 oak forest          low             46.4
 7      7 oak forest          low             49.2
 8      8 oak hornbeam forest low             48.7
 9      9 oak hornbeam forest low             13.8
10     10 oak forest          high            79.1
11     11 oak forest          low              7.4
12     14 oak hornbeam forest low             14.2
13     16 oak hornbeam forest low             26.2
14     18 oak hornbeam forest high            72.2
15     28 oak forest          low             29.7
16     29 oak hornbeam forest low             37.9
17     31 oak forest          low             14.9
18     32 oak hornbeam forest low             19.2
19     36 oak hornbeam forest low              3.3
20     41 oak hornbeam forest low             26.9
# ℹ 45 more rows

I have already said that we often use mutate to directly transform original values. For example I want to round the numbers in several variables at once, so I use mutate across

data %>% 
  mutate(across(c(Biomass, pH_KCl, TransTot), ~ round(.x, digits = 1))) %>%
  select(PlotID, Biomass, pH_KCl,TransTot)

# A tibble: 65 × 4
   PlotID Biomass pH_KCl TransTot
    <dbl>   <dbl>  <dbl>    <dbl>
 1      1    12.8    5.3      6.6
 2      2     9.9    3.2      6.9
 3      3    15.2    4        7.3
 4      4    16      3.8      6.4
 5      5    20.7    3.5      6.9
 6      6    46.4    3.8      7  
 7      7    49.2    3.5      7.4
 8      8    48.7    3.7      7  
 9      9    13.8    4.2      6.5
10     10    79.1    4        6.3
# ℹ 55 more rows
…
