5 Join Functions – Botzool Data Analysis
…
traits<- read_xlsx("data/forest_understory/traits.xlsx")

If we try directly merging these two files it is not working. We will get a warning explaining that there are no common variables.

spe%>% left_join(traits)

Error in `left_join()`:
! `by` must be supplied when `x` and `y` have no common variables.
ℹ Use `cross_join()` to perform a cross-join.

So there are more options what we can do. We check the data and see that the information we need to match is once saved as Species (in the data) and once as a Taxon (in traits).

tibble(spe)

# A tibble: 2,277 × 4
   RELEVE_NR Species              Layer CoverPerc
       <dbl> <chr>                <dbl>     <dbl>
 1         1 Quercus petraea agg.     1        63
 2         1 Acer campestre           1        18
 3         1 Crataegus laevigata      4         2
 4         1 Cornus mas               4         8
 5         1 Lonicera xylosteum       4         3
 6         1 Galium sylvaticum        6         3
 7         1 Carex digitata           6         3
 8         1 Melica nutans            6         2
 9         1 Polygonatum odoratum     6         2
10         1 Geum urbanum             6         2
# ℹ 2,267 more rows

tibble(traits)

# A tibble: 316 × 7
   Taxon       Height SeedMass EIV_Light EIV_Moisture EIV_Reaction EIV_Nutrients
   <chr>        <dbl>    <dbl>     <dbl>        <dbl>        <dbl>         <dbl>
 1 Quercus pe…  25      975.           6            5            5             4
 2 Acer campe…   7.5     54.3          5            5            7             6
 3 Crataegus …   5.5    276.           5            5            7             5
 4 Cornus mas    4      488.           6            4            8             5
 5 Lonicera x…   2      164.           4            5            7             6
 6 Galium syl…   0.85     1.10         5            5            6             5
 7 Carex digi…   0.2      1.44         4            5            6             6
 8 Melica nut…   0.45     2.49         4            5            6             4
 9 Polygonatu…   0.45   264.           6            3            7             3
10 Geum urban…   0.55     2.05         5            5            6             7
# ℹ 306 more rows

We can decide to rename the Species to Taxon and use this column for matching

spe%>% rename(Taxon=Species) %>% 
  left_join(traits, by="Taxon")

# A tibble: 2,277 × 10
   RELEVE_NR Taxon        Layer CoverPerc Height SeedMass EIV_Light EIV_Moisture
       <dbl> <chr>        <dbl>     <dbl>  <dbl>    <dbl>     <dbl>        <dbl>
 1         1 Quercus pet…     1        63  25      975.           6            5
 2         1 Acer campes…     1        18   7.5     54.3          5            5
 3         1 Crataegus l…     4         2   5.5    276.           5            5
 4         1 Cornus mas       4         8   4      488.           6            4
 5         1 Lonicera xy…     4         3   2      164.           4            5
 6         1 Galium sylv…     6         3   0.85     1.10         5            5
 7         1 Carex digit…     6         3   0.2      1.44         4            5
 8         1 Melica nuta…     6         2   0.45     2.49         4            5
 9         1 Polygonatum…     6         2   0.45   264.           6            3
10         1 Geum urbanum     6         2   0.55     2.05         5            5
# ℹ 2,267 more rows
# ℹ 2 more variables: EIV_Reaction <dbl>, EIV_Nutrients <dbl>

or we can even skip the by argument, as there is only one commong matching column.

spe%>% rename(Taxon=Species) %>% 
  left_join(traits)

Joining with `by = join_by(Taxon)`

# A tibble: 2,277 × 10
   RELEVE_NR Taxon        Layer CoverPerc Height SeedMass EIV_Light EIV_Moisture
       <dbl> <chr>        <dbl>     <dbl>  <dbl>    <dbl>     <dbl>        <dbl>
 1         1 Quercus pet…     1        63  25      975.           6            5
 2         1 Acer campes…     1        18   7.5     54.3          5            5
 3         1 Crataegus l…     4         2   5.5    276.           5            5
 4         1 Cornus mas       4         8   4      488.           6            4
 5         1 Lonicera xy…     4         3   2      164.           4            5
 6         1 Galium sylv…     6         3   0.85     1.10         5            5
 7         1 Carex digit…     6         3   0.2      1.44         4            5
 8         1 Melica nuta…     6         2   0.45     2.49         4            5
 9         1 Polygonatum…     6         2   0.45   264.           6            3
10         1 Geum urbanum     6         2   0.55     2.05         5            5
# ℹ 2,267 more rows
# ℹ 2 more variables: EIV_Reaction <dbl>, EIV_Nutrients <dbl>

We can also skip rename step and directly say in the left_join function what is matching with what. Note that it will keep Species as outcome, because this was how we named it in the primary data file

spe%>% left_join(traits, by=c("Species" ="Taxon"))

# A tibble: 2,277 × 10
   RELEVE_NR Species      Layer CoverPerc Height SeedMass EIV_Light EIV_Moisture
       <dbl> <chr>        <dbl>     <dbl>  <dbl>    <dbl>     <dbl>        <dbl>
 1         1 Quercus pet…     1        63  25      975.           6            5
 2         1 Acer campes…     1        18   7.5     54.3          5            5
 3         1 Crataegus l…     4         2   5.5    276.           5            5
 4         1 Cornus mas       4         8   4      488.           6            4
 5         1 Lonicera xy…     4         3   2      164.           4            5
 6         1 Galium sylv…     6         3   0.85     1.10         5            5
 7         1 Carex digit…     6         3   0.2      1.44         4            5
 8         1 Melica nuta…     6         2   0.45     2.49         4            5
 9         1 Polygonatum…     6         2   0.45   264.           6            3
10         1 Geum urbanum     6         2   0.55     2.05         5            5
# ℹ 2,267 more rows
# ℹ 2 more variables: EIV_Reaction <dbl>, EIV_Nutrients <dbl>
…
In the second subset we will use one forest type shared with the previous subset and two others, namely oak-hornbeam, ravine and alluvial forests, and a bit different selection of variables.

forest2<-env %>% 
  filter(ForestType %in% c(2,3,4))%>% 
  select(PlotID=RELEVE_NR, ForestType, ForestTypeName, pH_KCl,Canopy_E3)

Now left_join the data and check the preview #use view () to see more of the dataset. Here we have just added the extra information available in the second dataset to our selection of plots and variables in the first dataset.

forest1 %>% 
  left_join(forest2)

Joining with `by = join_by(PlotID, ForestType, ForestTypeName, pH_KCl)`

# A tibble: 44 × 6
   PlotID ForestType ForestTypeName      pH_KCl Biomass Canopy_E3
    <dbl>      <dbl> <chr>                <dbl>   <dbl>     <dbl>
 1      1          2 oak hornbeam forest   5.28    12.8        80
 2      2          1 oak forest            3.24     9.9        NA
 3      3          1 oak forest            4.01    15.2        NA
 4      4          1 oak forest            3.76    16          NA
 5      5          1 oak forest            3.50    20.7        NA
 6      6          1 oak forest            3.8     46.4        NA
 7      7          1 oak forest            3.48    49.2        NA
 8      8          2 oak hornbeam forest   3.68    48.7        85
 9      9          2 oak hornbeam forest   4.24    13.8        80
10     10          1 oak forest            4.00    79.1        NA
# ℹ 34 more rows

In the next step we will take both subsets and merge them together using full_join. What is the output? We will get a dataset will whole information available, this includes all four forests types. However, since the Forest type 1 is only present in the first subset, the corresponding rows will have only the information available there (forest type, pH). The type 2 is in both datasets so it will have all information from both datasets (forest type, pH, biomass, canopy). Type 3 and 4 will have information only from the second dataset (forest type, pH, canopy). Use view () to see the complete merged dataset.

forest1 %>% 
  full_join(forest2)

Joining with `by = join_by(PlotID, ForestType, ForestTypeName, pH_KCl)`

# A tibble: 65 × 6
   PlotID ForestType ForestTypeName      pH_KCl Biomass Canopy_E3
    <dbl>      <dbl> <chr>                <dbl>   <dbl>     <dbl>
 1      1          2 oak hornbeam forest   5.28    12.8        80
 2      2          1 oak forest            3.24     9.9        NA
 3      3          1 oak forest            4.01    15.2        NA
 4      4          1 oak forest            3.76    16          NA
 5      5          1 oak forest            3.50    20.7        NA
 6      6          1 oak forest            3.8     46.4        NA
 7      7          1 oak forest            3.48    49.2        NA
 8      8          2 oak hornbeam forest   3.68    48.7        85
 9      9          2 oak hornbeam forest   4.24    13.8        80
10     10          1 oak forest            4.00    79.1        NA
# ℹ 55 more rows

Note that the joining worked good, since we had the same names in both datasets. For example if biomass would be called soil_pH in one and pH_KCl in the other dataset, it will treat them as different variables as you can see below

forest1%>% 
  rename(soil_pH=pH_KCl) %>% 
  full_join(forest2)

Joining with `by = join_by(PlotID, ForestType, ForestTypeName)`

# A tibble: 65 × 7
   PlotID ForestType ForestTypeName      soil_pH Biomass pH_KCl Canopy_E3
    <dbl>      <dbl> <chr>                 <dbl>   <dbl>  <dbl>     <dbl>
 1      1          2 oak hornbeam forest    5.28    12.8   5.28        80
 2      2          1 oak forest             3.24     9.9  NA           NA
 3      3          1 oak forest             4.01    15.2  NA           NA
 4      4          1 oak forest             3.76    16    NA           NA
 5      5          1 oak forest             3.50    20.7  NA           NA
 6      6          1 oak forest             3.8     46.4  NA           NA
 7      7          1 oak forest             3.48    49.2  NA           NA
 8      8          2 oak hornbeam forest    3.68    48.7   3.68        85
 9      9          2 oak hornbeam forest    4.24    13.8   4.24        80
10     10          1 oak forest             4.00    79.1  NA           NA
# ℹ 55 more rows
…
forest1<-env %>% 
  filter(ForestType ==1)%>% 
  select(PlotID=RELEVE_NR, ForestType, ForestTypeName, pH_KCl, Biomass)

forest2<-env %>% 
  filter(ForestType ==2)%>% 
  select(PlotID=RELEVE_NR, ForestType, ForestTypeName, pH_KCl, Biomass)

Bind and check the whole dataset with view()

forest1%>% 
  bind_rows(forest2)

# A tibble: 44 × 5
   PlotID ForestType ForestTypeName pH_KCl Biomass
    <dbl>      <dbl> <chr>           <dbl>   <dbl>
 1      2          1 oak forest       3.24     9.9
 2      3          1 oak forest       4.01    15.2
 3      4          1 oak forest       3.76    16  
 4      5          1 oak forest       3.50    20.7
 5      6          1 oak forest       3.8     46.4
 6      7          1 oak forest       3.48    49.2
 7     10          1 oak forest       4.00    79.1
 8     11          1 oak forest       3.83     7.4
 9     28          1 oak forest       3.56    29.7
10     31          1 oak forest       3.20    14.9
# ℹ 34 more rows
…
However, I also need to filter the rows in the species data, where there is no information about forest types. The only common identificator is the PlotID (i.e. sample/site ID).

spe %>% rename(PlotID=RELEVE_NR) %>% 
  semi_join(env_selected)

Joining with `by = join_by(PlotID)`

# A tibble: 530 × 4
   PlotID Species             Layer CoverPerc
    <dbl> <chr>               <dbl>     <dbl>
 1    101 Fraxinus excelsior      1        38
 2    103 Alnus glutinosa         1        63
 3    104 Alnus glutinosa         1        63
 4    110 Alnus glutinosa         1        38
 5    111 Alnus glutinosa         1        38
 6    113 Alnus glutinosa         1        63
 7    125 Alnus glutinosa         1        38
 8    128 Corylus avellana        1        38
 9    130 Acer pseudoplatanus     1        38
10    132 Alnus glutinosa         1        38
# ℹ 520 more rows
…
5.4 Advanced mutate and .by

Below are few examples, how we used mutate so far

env %>% 
  mutate(author= "Axmanova", #add one column with specified value
        forestType=as.character(ForestType), #change the type of variable
        biomass = Biomass*1000, # multiply to change to mg
        forestTypeName= str_replace_all(ForestTypeName," ","_"))%>% #change string
  select(PlotID=RELEVE_NR, author, forestType, biomass,forestTypeName)

# A tibble: 65 × 5
   PlotID author   forestType biomass forestTypeName     
    <dbl> <chr>    <chr>        <dbl> <chr>              
 1      1 Axmanova 2            12800 oak_hornbeam_forest
 2      2 Axmanova 1             9900 oak_forest         
 3      3 Axmanova 1            15200 oak_forest         
 4      4 Axmanova 1            16000 oak_forest         
 5      5 Axmanova 1            20700 oak_forest         
 6      6 Axmanova 1            46400 oak_forest         
 7      7 Axmanova 1            49200 oak_forest         
 8      8 Axmanova 2            48700 oak_hornbeam_forest
 9      9 Axmanova 2            13800 oak_hornbeam_forest
10     10 Axmanova 1            79100 oak_forest         
# ℹ 55 more rows

We also used mutate to adjust more variables at once

env %>% mutate(across(c(Radiation, Heat), ~ round(.x, digits = 2))) %>%
  select (PlotID=RELEVE_NR, Radiation, Heat)

# A tibble: 65 × 3
   PlotID Radiation  Heat
    <dbl>     <dbl> <dbl>
 1      1      0.88  0.86
 2      2      0.93  0.81
 3      3      0.92  0.85
 4      4      0.93  0.95
 5      5      0.87  0.87
 6      6      0.92  0.88
 7      7      0.83  0.8 
 8      8      0.87  0.87
 9      9      0.61  0.42
10     10      0.91  0.93
# ℹ 55 more rows

.x refers to the entire column (vector) being transformed inside a function like mutate(across(…)) or map().

Alternatively if you have a large table with only measured variables you can specify what should not be used, here Species, and mutate will be applied to everything left. This is especially useful for changing formats e.g from character to numeric (function as.numeric)

iris %>% 
  as_tibble() %>%  #first change from dataframe to tibble 
  mutate(across(-Species,~ round(.x, digits=1)))

# A tibble: 150 × 5
   Sepal.Length Sepal.Width Petal.Length Petal.Width Species
          <dbl>       <dbl>        <dbl>       <dbl> <fct>  
 1          5.1         3.5          1.4         0.2 setosa 
 2          4.9         3            1.4         0.2 setosa 
 3          4.7         3.2          1.3         0.2 setosa 
 4          4.6         3.1          1.5         0.2 setosa 
 5          5           3.6          1.4         0.2 setosa 
 6          5.4         3.9          1.7         0.4 setosa 
 7          4.6         3.4          1.4         0.3 setosa 
 8          5           3.4          1.5         0.2 setosa 
 9          4.4         2.9          1.4         0.2 setosa 
10          4.9         3.1          1.5         0.1 setosa 
# ℹ 140 more rows

You can even create a list of functions which should be applied. relocate here was used to shift all the Sepal variables before the first variable / just for easier check.

iris%>% 
  as_tibble() %>% 
  mutate(across(starts_with("Sepal"),
                list(rounded = round, log = log1p)))%>%
  relocate(starts_with("Sepal"),.before = 1)

# A tibble: 150 × 9
   Sepal.Length Sepal.Width Sepal.Length_rounded Sepal.Length_log
          <dbl>       <dbl>                <dbl>            <dbl>
 1          5.1         3.5                    5             1.81
 2          4.9         3                      5             1.77
 3          4.7         3.2                    5             1.74
 4          4.6         3.1                    5             1.72
 5          5           3.6                    5             1.79
 6          5.4         3.9                    5             1.86
 7          4.6         3.4                    5             1.72
 8          5           3.4                    5             1.79
 9          4.4         2.9                    4             1.69
10          4.9         3.1                    5             1.77
# ℹ 140 more rows
# ℹ 5 more variables: Sepal.Width_rounded <dbl>, Sepal.Width_log <dbl>,
#   Petal.Length <dbl>, Petal.Width <dbl>, Species <fct>

What we can further do is to mutate a variable using group_by. This can be like below, step by step…

env %>% 
  group_by(ForestType) %>%
  select(PlotID=RELEVE_NR, ForestType, Biomass)%>%
  mutate(meanBiomass=mean(Biomass))%>%
  mutate(comparison= (case_when(Biomass>meanBiomass ~"higher", 
                               Biomass<meanBiomass ~"lower",
                               TRUE ~ "equal")))%>%
  arrange(ForestType,desc(Biomass))

# A tibble: 65 × 5
# Groups:   ForestType [4]
   PlotID ForestType Biomass meanBiomass comparison
    <dbl>      <dbl>   <dbl>       <dbl> <chr>     
 1     10          1    79.1        26.7 higher    
 2      7          1    49.2        26.7 higher    
 3      6          1    46.4        26.7 higher    
 4     44          1    34.1        26.7 higher    
 5     82          1    33.9        26.7 higher    
 6     28          1    29.7        26.7 higher    
 7     42          1    21.5        26.7 lower     
 8      5          1    20.7        26.7 lower     
 9     81          1    20.6        26.7 lower     
10      4          1    16          26.7 lower     
# ℹ 55 more rows

or like this, where we do not use stand alone group_by but much more effective .by directly included in the mutate function.

env %>%
  select(PlotID=RELEVE_NR, ForestType, Biomass)%>%
  mutate(
    meanBiomass = mean(Biomass, na.rm = TRUE),
    comparison = case_when(
      Biomass > meanBiomass ~ "higher",
      Biomass < meanBiomass ~ "lower",
      TRUE ~ "equal"),
    .by = ForestType)

# A tibble: 65 × 5
   PlotID ForestType Biomass meanBiomass comparison
    <dbl>      <dbl>   <dbl>       <dbl> <chr>     
 1      1          2    12.8        44.4 lower     
 2      2          1     9.9        26.7 lower     
 3      3          1    15.2        26.7 lower     
 4      4          1    16          26.7 lower     
 5      5          1    20.7        26.7 lower     
 6      6          1    46.4        26.7 higher    
 7      7          1    49.2        26.7 higher    
 8      8          2    48.7        44.4 higher    
 9      9          2    13.8        44.4 lower     
10     10          1    79.1        26.7 higher    
# ℹ 55 more rows
…
# A tibble: 4 × 2
  ForestTypeName      meanBiomass
  <chr>                     <dbl>
1 alluvial forest           148. 
2 oak forest                 26.7
3 oak hornbeam forest        44.4
4 ravine forest              79.1

We did not yet explain anything about n_distinct function. It can be used for getting unique combinations of selected variables directly in summarise. Like here unique number of species in each plot

spe %>% 
  summarise(unique_species = n_distinct(Species), .by = RELEVE_NR)

# A tibble: 65 × 2
   RELEVE_NR unique_species
       <dbl>          <int>
 1         1             42
 2         2             16
 3         3             15
 4         4             20
 5         5             14
 6         6             19
 7         7             22
 8         8             23
 9         9             22
10        10             18
# ℹ 55 more rows
…
