7 + 8 Automatisation – Botzool Data Analysis
…
7.1.1 Vector functions

Let’s say we want to standardise each measured variable in the dataset, and just imagine for now that there is no scale() function, so we have to do it manually. We would end up with something like this:

penguins |> 
  mutate(bill_length_mm = (bill_length_mm - mean(bill_length_mm, na.rm = T))/sd(bill_length_mm, na.rm = T), 
         bill_depth_mm = (bill_depth_mm - mean(bill_depth_mm, na.rm = T))/sd(bill_depth_mm, na.rm = T),
         flipper_length_mm = (flipper_length_mm - mean(flipper_length_mm, na.rm = T))/sd(flipper_length_mm, na.rm = T),
         body_mass_g = (body_mass_g - mean(body_mass_g, na.rm = T))/sd(body_mass_g, na.rm = T))

# A tibble: 344 × 8
   species island    bill_length_mm bill_depth_mm flipper_length_mm body_mass_g
   <fct>   <fct>              <dbl>         <dbl>             <dbl>       <dbl>
 1 Adelie  Torgersen         -0.883         0.784            -1.42      -0.563 
 2 Adelie  Torgersen         -0.810         0.126            -1.06      -0.501 
 3 Adelie  Torgersen         -0.663         0.430            -0.421     -1.19  
 4 Adelie  Torgersen         NA            NA                NA         NA     
 5 Adelie  Torgersen         -1.32          1.09             -0.563     -0.937 
 6 Adelie  Torgersen         -0.847         1.75             -0.776     -0.688 
 7 Adelie  Torgersen         -0.920         0.329            -1.42      -0.719 
 8 Adelie  Torgersen         -0.865         1.24             -0.421      0.590 
 9 Adelie  Torgersen         -1.80          0.480            -0.563     -0.906 
10 Adelie  Torgersen         -0.352         1.54             -0.776      0.0602
# ℹ 334 more rows
# ℹ 2 more variables: sex <fct>, year <int>
…
In our case, the function would look like this:

custom_scale <- function(x){
  (x - mean(x, na.rm = T))/sd(x, na.rm = T)
}

When we run this code, our new function is saved into the environment, and we can use it as any other function. We created a function that takes a vector and returns a vector of the same length that might be use within the mutate() function.

penguins |> 
  mutate(bill_length_mm = custom_scale(bill_length_mm), 
         bill_depth_mm = custom_scale(bill_depth_mm),
         flipper_length_mm = custom_scale(flipper_length_mm),
         body_mass_g = custom_scale(body_mass_g))

# A tibble: 344 × 8
   species island    bill_length_mm bill_depth_mm flipper_length_mm body_mass_g
   <fct>   <fct>              <dbl>         <dbl>             <dbl>       <dbl>
 1 Adelie  Torgersen         -0.883         0.784            -1.42      -0.563 
 2 Adelie  Torgersen         -0.810         0.126            -1.06      -0.501 
 3 Adelie  Torgersen         -0.663         0.430            -0.421     -1.19  
 4 Adelie  Torgersen         NA            NA                NA         NA     
 5 Adelie  Torgersen         -1.32          1.09             -0.563     -0.937 
 6 Adelie  Torgersen         -0.847         1.75             -0.776     -0.688 
 7 Adelie  Torgersen         -0.920         0.329            -1.42      -0.719 
 8 Adelie  Torgersen         -0.865         1.24             -0.421      0.590 
 9 Adelie  Torgersen         -1.80          0.480            -0.563     -0.906 
10 Adelie  Torgersen         -0.352         1.54             -0.776      0.0602
# ℹ 334 more rows
# ℹ 2 more variables: sex <fct>, year <int>

We can, of course, reduce the duplication even further by using the across() function:

penguins |> 
  mutate(across(c(bill_length_mm, bill_depth_mm, flipper_length_mm, body_mass_g), ~custom_scale(.x)))

# A tibble: 344 × 8
   species island    bill_length_mm bill_depth_mm flipper_length_mm body_mass_g
   <fct>   <fct>              <dbl>         <dbl>             <dbl>       <dbl>
 1 Adelie  Torgersen         -0.883         0.784            -1.42      -0.563 
 2 Adelie  Torgersen         -0.810         0.126            -1.06      -0.501 
 3 Adelie  Torgersen         -0.663         0.430            -0.421     -1.19  
 4 Adelie  Torgersen         NA            NA                NA         NA     
 5 Adelie  Torgersen         -1.32          1.09             -0.563     -0.937 
 6 Adelie  Torgersen         -0.847         1.75             -0.776     -0.688 
 7 Adelie  Torgersen         -0.920         0.329            -1.42      -0.719 
 8 Adelie  Torgersen         -0.865         1.24             -0.421      0.590 
 9 Adelie  Torgersen         -1.80          0.480            -0.563     -0.906 
10 Adelie  Torgersen         -0.352         1.54             -0.776      0.0602
# ℹ 334 more rows
# ℹ 2 more variables: sex <fct>, year <int>
…
glimpse(gapminder_nest)

Rows: 5
Columns: 3
$ continent <chr> "Asia", "Europe", "Africa", "Americas", "Oceania"
$ data      <list> [<tbl_df[396 x 5]>], [<tbl_df[360 x 5]>], [<tbl_df[624 x 5]>…
$ path      <chr> "data/gapminder_continent/gapminder_Asia.csv", "data/gapmin…

We can see that the data column is a list containing tibbles with different numbers of rows, but the same number of columns. To look at one of them we need to use the [[]] again.

gapminder_nest$data[[1]]

# A tibble: 396 × 5
    year country          lifeExp       pop gdpPercap
   <dbl> <chr>              <dbl>     <dbl>     <dbl>
 1  1952 Afghanistan         28.8   8425333      779.
 2  1952 Bahrain             50.9    120447     9867.
 3  1952 Bangladesh          37.5  46886859      684.
 4  1952 Cambodia            39.4   4693836      368.
 5  1952 China               44   556263527      400.
 6  1952 Hong Kong, China    61.0   2125900     3054.
 7  1952 India               37.4 372000000      547.
 8  1952 Indonesia           37.5  82052000      750.
 9  1952 Iran                44.9  17272000     3035.
10  1952 Iraq                45.3   5441766     4130.
# ℹ 386 more rows
…
