9 + 10 Maps – Botzool Data Analysis
…
9.1.1. Vectors

First, we will load spatial data on grasslands in South Moravia, stored in Shapefile format. The read_sf() function from the sf package imports the file as a Simple Features (sf) object, which is a standardised data structure for representing spatial data in R. An sf object combines both geometric information (such as the shape and location of each grassland polygon) and attribute data (e.g., land cover type and area). This structure allows us to easily visualise, manipulate, and analyse spatial data directly within R.

grasslands_shp <- read_sf("data/grasslands_shp/LoukaPastvina_JMK.shp")
grasslands_shp

Simple feature collection with 6682 features and 4 fields
Geometry type: MULTIPOLYGON
Dimension:     XY
Bounding box:  xmin: 15.56716 ymin: 48.62252 xmax: 17.63911 ymax: 49.63325
Geodetic CRS:  WGS 84
# A tibble: 6,682 × 5
   SHAPE_Leng SHAPE_Area DATA50_K DATA50_P                              geometry
        <dbl>      <dbl> <chr>    <chr>                       <MULTIPOLYGON [°]>
 1      1396.     32898. 4030000  louky, pastviny (((15.56967 48.93862, 15.5696…
 2      1126.     24282. 4030000  louky, pastviny (((15.63268 48.89676, 15.6327…
 3     11685.    398261. 4030000  louky, pastviny (((15.61876 48.91636, 15.6186…
 4      1454.     26482. 4030000  louky, pastviny (((15.60223 48.90007, 15.6019…
 5      4838.    171081. 4030000  louky, pastviny (((15.62469 48.90712, 15.6244…
 6      1223.     40670. 4030000  louky, pastviny (((15.65175 48.89202, 15.6515…
 7      2392.     56106. 4030000  louky, pastviny (((15.68347 48.89934, 15.6833…
 8     20895.    963673. 4030000  louky, pastviny (((15.62271 48.94923, 15.6225…
 9      1131.     33635. 4030000  louky, pastviny (((15.57518 48.92822, 15.5749…
10      2542.    111371. 4030000  louky, pastviny (((15.69191 48.8635, 15.69191…
# ℹ 6,672 more rows
…
climate_stack <- rast("data/climate_raster/climate_stack.tif")
nlyr(climate_stack)

[1] 2

Raster data can be converted to a data frame for easier manipulation or analysis. Each row in the resulting data frame corresponds to a raster cell and typically includes the cell coordinates (x and y) along with the cell value(s). Setting xy = TRUE ensures that the coordinates are included in the data frame together with the raster values. To convert the data into a tibble, we have to go through data frame.

This approach works not only for single-layer rasters but also for raster stacks. In that case, each additional layer becomes a separate column in the resulting data frame

dem %>%
  as.data.frame(xy = TRUE) %>%
  as_tibble()

# A tibble: 2,368,433 × 3
       x     y dem_100
   <dbl> <dbl>   <dbl>
 1  17.8  50.0    276.
 2  17.8  50.0    276.
 3  17.9  50.0    276.
 4  17.9  50.0    276.
 5  17.9  50.0    275.
 6  17.9  50.0    276.
 7  17.9  50.0    276.
 8  17.9  50.0    278.
 9  17.9  50.0    279.
10  17.9  50.0    280.
# ℹ 2,368,423 more rows
…
9.3.3. Combining vector and raster operations

Vector and raster data are often used together to relate spatial features to raster layers. Typical operations include extracting raster values for vector geometries.

The extract() function retrieves raster cell values corresponding to the locations of vector features (points, lines, or polygons). This is useful, for example, when you want to obtain the elevation for vegetation plots.

plots_UTM33N %>% 
  mutate(elevation = terra::extract(dem_UTM33N, plots_UTM33N)[,2])

Simple feature collection with 5978 features and 6 fields
Geometry type: POINT
Dimension:     XY
Bounding box:  xmin: 541576 ymin: 5387566 xmax: 693311.1 ymax: 5498375
Projected CRS: WGS 84 / UTM zone 33N
# A tibble: 5,978 × 7
   PlotID Releve_area Broad.habitat.code   All Soil_Reaction
 *  <dbl>       <dbl> <chr>              <dbl>         <dbl>
 1    553          20 T                     22          6.41
 2    554          20 T                     23          6.74
 3    555          20 T                     20          6.5 
 4    557          20 T                     23          6.65
 5   3039           4 T                      1          7   
 6   6617          16 T                     15          6.53
 7   6619          16 T                     12          6.67
 8   6623          16 T                     23          6.35
 9   6629          16 T                     16          6.44
10   6631          16 K                     14          6.57
# ℹ 5,968 more rows
# ℹ 2 more variables: geometry <POINT [m]>, elevation <dbl>
…
